0.21462959
0.4891464
0.56919582
-1.2923266
-6.1773961
-1.4908448
0.39730962
0.581595
1.6722253
-0.004313345
0.27703837
-1.5776447
-0.64944261
-0.20432756
0.03414997
1.0994246
-0.65442556
0.96621219
1.882911
-1.6539709
-1.9762833
0.33242048
-2.9929626
-5.4822246
-1.3176332
-0.096837371
0.53279915
-0.63967954
-1.4202014
-0.27555893
0.48424098
-3.043529
-0.28759164
-3.2463604
0.4709985
1.6852253
-0.97040036
-1.3341405
0.73222104
0.80209424
0.26652017
2.6132647
1.686937
-2.0380424
-1.8326823
-3.2341942
1.4189992e-05
1.0773053
0.82840512
0.59804558
-0.14311022
0.93063018
1.3070407
-0.41652264
1.2431815
1.6809602
1.4105814
-0.56794804
0.222363
2.2664725
-0.52780953
2.5052592
-1.2654438
-1.250487
0.45920681
1.2077236
-0.39002515
0.4008336
-1.0489623
-0.03798412
-1.9714205
-0.86321779
-1.2202171
-1.0344454
-0.75442856
2.341165
-1.7436378
1.1971061
1.7051905
-1.7086935
-1.7676282
-0.71502753
1.0705953
-0.92870428
0.13842865
-0.4896196
0.53036308
0.77145303
-0.18413885
0.40034707
1.0706011
-1.429534
-0.63534539
-0.69007558
0.06349794
3.6408852
0.99723008
0.74028505
0.71286741
-0.20405773
-0.80192539
-2.1239654
0.52109858
0.046993774
1.2606849
3.3210538
1.1077407
0.72788496
-0.79992795
-1.0254095
0.098966892
0.22785623
-0.51295035
1.5090274
2.030715
-0.71355024
1.3770528
-2.1668387
-0.012901277
0.17935782
0.71610974
0.83203642
1.4044875
0.72698248
-1.243133
-0.487728
0.95061432
-1.2484663
-0.29624219
0.19760272
-0.1710293
0.10617663
2.6208841
-0.98961712
0.41166731
1.3149663
0.5480909
-0.14317138
1.1463067
-0.60810912
0.11455163
-0.63377626
-5.3366113
-2.7005925
0.043946267
-0.9565865
-0.13318754
-2.4990358
0.42593395
1.676264
-0.1233213
1.2181451
0.55202174
0.10174387
-0.36118852
1.05289
-0.5725335
0.64052964
-0.64633273
-1.3401669
-2.831662
-0.96159306
-2.0370946
-0.71624914
1.7881657
0.39768595
1.9188316
0.31773802
-0.4663933
-0.5341304
-2.9977188
-1.2031815
0.15429254
1.4001541
1.4240775
1.8657119
0.18501934
1.1174834
1.2719632
-0.29545223
-1.417283
1.0430615
-0.24484967
1.7739222
-0.22816429
1.1546547
1.6394678
-0.89176152
-6.6864118
1.1025995
-1.2803365
-0.93518413
0.099474594
-0.5348836
0.88879031
0.45793018
1.5743866
-1.2548686
0.04796121
1.4544657
-0.5464526
-0.0401062
-2.3287277
-0.058740951
0.86697765
-0.34819874
0.77490328
-0.13681019
-1.5084477
0.88165578
-0.73742316
1.6870764
0.81752201
0.51846405
0.85958925
0.42420788
-0.98394553
0.28135957
1.6499582
0.34777804
-2.3639424
-1.3896784
0.15344875
-1.809514
0.56294873
1.4754578
0.86620513
0.56294873
-0.23059222
-1.141377
0.27494353
0.25677361
-3.781028
-2.0163073
-0.75649866
-0.090453098
2.3186471
-0.60946183
-1.6826898
-0.17675995
1.9977895
1.553822
0.24981013
1.2022957
0.69704439
1.3918381
-0.26152488
-0.55890894
0.3333746
-1.2024097
-2.514679
0.10185035
-1.1069154
-2.4648496
-0.36636781
-0.35621725
1.1339264
1.2078939
-1.1611889
0.72324302
0.74435986
2.1825804
-0.76338619
0.33915183
1.4832781
-0.038683349
-0.87213318
-0.44843482
1.4857023
-1.1199168
1.1359885
0.13424148
-0.53136621
-1.3580654
-0.58949986
-0.37510727
-0.73557531
0.1660724
2.3856401
-1.5694602
0.4826765
0.26740931
1.3121135
0.67366623
-1.3016047
0.22618424
-0.67332919
0.080599754
0.021618452
-1.4992504
-2.1409784
-0.71867114
-0.52399977
0.66025269
-0.58588963
-1.2495492
-0.58561287
-0.21231745
-0.49803764
2.0132826
-0.2282882
3.6063268
-0.19248057
-1.298677
0.16444812
-1.1658296
-3.5662577
0.31930279
1.8971711
-0.93310256
0.60483604
3.3015272
3.0963947
-1.1577201
0.073177771
-2.8646097
-0.76061531
0.21647465
-2.8593867
-0.90053767
-0.86138467
1.6573807
-1.2576379
-1.7811994
-1.7542776
-0.86816328
-1.8293514
-1.2441916
0.0065119294
-0.46984856
-0.50578474
0.35883596
0.37812185
-1.425261
0.86514162
0.80486624
0.19791625
-0.50718646
0.87008512
-2.1643003
-2.765143
0.8438255
1.2133903
-0.40006671
1.643703
0.32327375
-0.07571558
0.40903308
1.1114513
-0.3395712
1.4275994
-1.9602767
-2.293783
-1.265743
0.71323851
-0.76212185
-0.1305773
0.89958924
-1.1607134
-0.98242064
2.4573349
-0.53178521
1.7346807
-0.26103458
-1.1082282
-0.69334125
-1.3995771
-2.6474725
0.4685781
-0.84498173
-0.86168506
-0.45207114
0.52721224
2.1893188
-0.33657478
-0.56604724
1.0370292
1.1432304
-1.1671587
0.90323487
-1.5381403
-2.2641501
1.1021562
0.062841949
1.7051905
-1.3420217
1.0725229
1.3055993
-0.61534006
1.7131554
0.17929401
0.77031423
0.59216377
-1.6855549
0.80661099
-0.4589703
-1.1108727
0.33257676
-1.1445551
1.5880397
-0.32706771
-0.37884743
-0.2367291
1.1039105
0.94675072
0.071301297
-2.3764257
-1.4749777
-0.96820602
0.59896149
-0.038358552
2.0949199
2.0755683
0.71841598
0.8687003
-0.033246207
-0.36663805
-2.3566551
1.1289332
0.67817565
-0.085502058
0.68739645
-1.3859637
1.1983153
-2.4192589
-0.66710226
-0.032631863
-0.64228822
-0.68991919
-2.0370851
-1.1133227
-1.9840485
2.0781535
-0.39577912
-0.69168972
0.51460119
-0.45840849
0.7143143
-1.0481808
-1.2372541
1.8595698
-0.4924756
1.0811751
-1.3009599
1.4371254
0.12832812
-0.88122796
-2.1610665
-0.35785539
1.2174399
0.1723852
0.12631302
0.19115445
0.17000217
-2.603243
0.57638404
1.1049855
-0.68939118
1.6864577
-3.446068
0.47055271
4.9880428
1.4772653
0.19973921
0.92881168
0.75241985
-0.23877028
-0.82502524
-0.056296977
1.1184477
0.86905788
-0.97727218
1.2550114
-1.1309064
-0.41194533
-4.8240941
0.93490027
-0.42657942
-3.2051041
1.1172501
3.1346236
-1.1804894
-0.23254339
0.47441024
0.53158745
2.285124
0.59936284
-1.8368436
0.095685975
-1.8384305
-0.094711636
-0.27433808
1.583172
-0.27970468
0.41812481
-0.056774107
0.11950243
1.1250518
-1.0066261
-0.67837079
-0.32944765
0.12122676
0.49705352
1.3464849
0.99799359
0.73992551
0.92168757
1.0128577
0.34329907
-1.1114779
-1.8823619
-1.9324635
-1.4770797
-0.023987519
-2.265957
1.151803
0.95296974
0.76938194
-4.1082791
-1.3636281
1.7948919
-1.1248986
1.2655454
2.5701884
0.32049663
0.22703063
-0.28394584
-0.33102312
1.2113641
0.73620326
-0.14469045
-0.51686013
1.4405133
1.1883939
0.1469191
-1.4039828
0.86035241
1.5842191
0.048590969
-0.60572226
-0.55350057
-3.3755805
0.63270875
-1.1527455
0.15915988
-0.86103682
0.049484112
-0.50625873
-0.45017351
1.7140803
-2.1900557
-1.5041242
1.2710057
-0.15341111
-1.2068886
0.71773836
0.87066374
1.1918612
0.34509548
0.31418634
-0.080743011
-1.6985401
-1.0592076
0.93068143
0.11348196
0.36928714
-1.8442214
1.9249938
-0.75136921
-2.1081507
3.5829938
0.85513111
1.8764375
0.44117951
1.5180206
-0.39276499
1.1991692
1.2451265
-0.7874387
-1.8210959
1.2382194
-1.0413569
1.5786321
-0.66127968
-0.32244968
-2.4377134
-0.71465206
-3.5855621
-1.0872974
-0.63163127
2.0390546
-0.2414238
0.73189092
0.76625882
-0.10234282
0.1644229
-1.9071191
-1.171729
0.76964097
1.3822435
-1.6434264
0.38445521
-2.0951528
0.32658884
-0.89609407
1.3882049
0.2512744
0.7976664
-0.022368056
-1.0077429
2.2809182
-1.4401115
0.93259659
-0.64659259
0.41539528
0.47398231
0.78884541
-0.67074724
-0.080887186
-0.0043986349
0.004566391
0.37053719
-0.12064034
0.5324172
-2.1030247
-0.039104462
-0.49484539
0.52324953
-0.29396455
-2.2362045
0.3608981
0.22057356
-0.27799651
0.14159695
0.47690659
-0.84604608
-2.6382903
0.28341777
0.99611035
-0.19187358
-0.87349559
1.0860729
1.6818027
1.2961509
1.3606451
-1.4011386
1.9704085
1.5382671
0.94544138
1.3501801
-1.4603378
-1.1634914
1.3879947
1.4996203
0.63012546
-0.92883119
0.77097424
1.6503715
1.2519435
-0.95705369
-1.5844342
-2.9154145
-0.90154603
0.31861432
0.45854255
-0.93922625
0.56001266
-0.54244655
-0.64987326
-0.22095536
1.5142991
-3.2928823
1.5278
1.4948366
-0.16622618
0.98539661
-0.42097325
0.78099094
0.30226115
-1.0338679
-1.4491946
-1.9507184
0.05695944
-2.3689275
1.9247456
-1.2699147
0.22131508
0.96521233
-4.1267459
0.98936134
-0.21900496
2.4020733
-0.72044615
1.422964
0.73417561
1.2824552
0.90550345
-0.38399841
0.64581138
-0.40600853
-0.61218784
-2.3568151
2.2932536
0.86353768
-0.15306407
-2.0379292
-3.5477664
0.0017751499
-0.4181144
0.6696114
1.5868113
2.1734285
-0.8494399
-1.113221
0.44150021
-3.0825277
1.1581817
2.7713979
-2.0114513
-1.9595638
-1.7697155
-0.14647511
-1.0244792
-0.13711484
-1.7195852
0.79784207
-1.4842622
-0.80848359
-0.41274666
0.20729576
-0.37620517
-0.87007388
-0.65470086
-4.8027137
0.7961952
-0.93694502
-1.9689186
1.4923047
-1.3666501
0.017758197
-1.248726
1.3259383
1.0994689
-0.16894209
1.6900513
0.19113563
-2.3443079
-1.438203
0.83864467
1.1798019
-0.26934207
-1.2329864
-2.9062431
0.38743226
0.46383814
-0.86246117
1.077656
0.1602016
2.4395675
1.0553426
-0.27742959
1.1781695
0.42864057
1.0692478
-0.74088471
0.32189821
-1.093057
1.3826165
2.3627927
0.019241623
0.40601968
-1.1794383
-5.0226702
-5.5763655
3.4257343
-0.49230197
1.1686426
1.2938949
0.27248548
-1.3549416
0.3746115
0.67909143
0.50205912
0.54032598
-0.25107885
-1.0035595
2.8732764
0.43149747
-0.33651758
-1.1338254
1.0382133
-1.1790004
0.63503052
-1.7887251
-0.66185556
-1.5001032
0.67028959
-1.4042761
1.428931
0.52760465
2.9795642
-1.3794244
1.225385
-2.8607248
-0.32467981
0.84033782
0.69373655
-2.0743503
1.1787589
-0.45706892
1.0299593
-1.4801349
0.27649451
-1.9244683
-1.1742549
-1.573605
0.23685058
0.65776672
-0.2491508
0.97447097
-0.20559516
-0.31515661
-0.9214502
-2.6505699
-0.46735673
1.0139268
0.33541567
-0.25408682
-0.62247294
-2.8341634
-3.2015411
0.89578526
0.77712877
0.22302518
0.10522683
1.0641418
-0.40023109
-1.7564863
-0.040943733
1.4978301
1.6924638
1.3284766
-2.2112896
0.38697648
0.84022528
0.74540756
0.83756307
0.32607856
-1.9190114
1.576648
2.0808511
-0.89276317
0.14736911
-0.67636742
-0.9289793
-0.39281381
-2.5736121
0.81567003
-1.806456
-1.831004
-1.4233495
-0.69875586
0.73942822
-2.6618232
0.31426205
-0.74089757
-1.6594402
-0.31709471
1.9210209
0.027454673
-1.0301856
0.31209287
-0.97355649
1.0144531
-0.76706565
-0.73829593
-0.58970581
1.1805831
-0.65213893
0.22140801
0.20168683
0.22567555
1.2685967
1.3550836
-0.61035029
0.9421077
-0.80427867
0.34418189
-2.8594248
-1.0002418
-1.2379498
6.4511382
-0.91927764
1.581164
0.80437362
0.32803235
0.62828112
0.33653948
0.90949568
-1.9345985
-1.0011714
-0.58586758
0.41818586
1.0653466
0.86165265
-1.5070945
2.1127212
3.0049816
-0.15786387
-0.87878
-1.2788993
-1.3193407
0.59006424
4.2530161
-0.8114251
-1.5751297
-1.4828216
-0.40970529
1.2957086
0.83515603
1.2225654
1.1482206
1.3156824
0.16405494
1.2061632
1.1324856
0.1781616
0.41049727
-0.47392836
1.0630055
2.1908055
1.289528
-1.3926515
0.2502142
0.16771057
1.7756196
-0.53800046
-1.001646
-0.17731162
-0.60730939
0.46677845
1.0066807
-2.5813245
0.32262615
1.1181066
1.2932431
1.1921129
1.1741507
-2.974437
0.083983169
-0.3189474
-0.57166157
-1.2938268
-1.1759431
-1.942483
-0.05005249
-3.1439706
-1.2356032
-0.39274234
0.40088409
0.40459262
1.7517489
-2.131201
1.1161704
-0.10937903
-1.0855196
-0.39809663
-1.6386455
-1.39993
0.72578251
-1.7841276
0.42027647
-1.1357833
-1.2574458
1.4339382
-1.1751021
0.51047472
0.9543015
-0.24537069
3.575893
-0.35485855
-0.94033024
2.426172
0.0099631933
2.3933855
2.4415128
-1.4014927
0.35542465
3.132286
1.7588751
0.31103629
0.44599678
-1.5402399
1.0007914
1.0458593
-1.3134881
-5.0452823
1.5181091
-1.7124689
0.51627056
-1.4454117
-1.0343121
